Lab 3: COVID-19
…
# Display the processed per capita data
state_data_per_capita

# A tibble: 51,200 × 7
# Groups:   state [1]
   state   date       daily_new_cases rolling_avg POPESTIMATE2021 cases_per_100k
   <chr>   <date>               <dbl>       <dbl>           <dbl>          <dbl>
 1 Colora… 2020-03-05               2          NA          523544          0.382
 2 Colora… 2020-03-05               2          NA           16579         12.1  
 3 Colora… 2020-03-05               2          NA          656855          0.304
 4 Colora… 2020-03-05               2          NA           13806         14.5  
 5 Colora… 2020-03-05               2          NA            3490         57.3  
 6 Colora… 2020-03-05               2          NA            5339         37.5  
 7 Colora… 2020-03-05               2          NA          327084          0.611
 8 Colora… 2020-03-05               2          NA           75411          2.65 
 9 Colora… 2020-03-05               2          NA           19741         10.1  
10 Colora… 2020-03-05               2          NA            1719        116.   
# ℹ 51,190 more rows
# ℹ 1 more variable: rolling_avg_per_100k <dbl>
…
